{
  "swagger": "2.0",
  "info": {
    "description": "This is a sample server Petstore server.  You can find out more about     Swagger at [http://swagger.io](http://swagger.io) or on [irc.freenode.net, #swagger](http://swagger.io/irc/).      For this sample, you can use the api key `special-key` to test the authorization     filters.",
    "version": "1.0.0",
    "title": "Epoch API",
    "termsOfService": "http://swagger.io/terms/",
    "contact": {
      "email": "apiteam@swagger.io"
    },
    "license": {
      "name": "Apache 2.0",
      "url": "http://www.apache.org/licenses/LICENSE-2.0.html"
    }
  },
  "host": "api.meproz.com",
  "basePath": "/",
  "schemes": [
    "https",
    "http"
  ],
  "paths": {
    "/Machine/GetMachine": {
      "get": {
        "tags": [
          "mfg"
        ],
        "summary": "Returns machine list",
        "description": "Returns a list of machine info",
        "operationId": "getMachineList",
        "produces": [
          "application/json"
        ],
        "parameters": [],
        "responses": {
          "200": {
            "description": "successful operation",
            "schema": {
              "type": "object",
              "properties": {
                "Result": {
                  "type": "string",
                  "description": "The machine no."
                },
                "MachineList": {
                  "type": "array",
                  "items": {
                    "$ref": "#/definitions/Machine"
                  }
                }
              }
            }
          }
        }
      }
    },
    "/Machine/GetMachineStatus/{account}/{machineNo}": {
      "get": {
        "tags": [
          "mfg"
        ],
        "summary": "Returns machine info",
        "description": "Returns machine info",
        "operationId": "getMachineInfo",
        "produces": [
          "application/json"
        ],
        "parameters": [
          {
            "name": "account",
            "in": "path",
            "description": "account",
            "required": true,
            "type": "string"
          },
          {
            "name": "machineNo",
            "in": "path",
            "description": "machine no",
            "required": true,
            "type": "string"
          }
        ],
        "responses": {
          "200": {
            "description": "successful operation",
            "schema": {
              "type": "object",
              "properties": {
                "Result": {
                  "type": "string",
                  "description": "success or fail"
                },
                "MachineStage": {
                  "type": "array",
                  "items": {
                    "$ref": "#/definitions/MachineStage"
                  }
                },
                "PartNo": {
                  "type": "string"
                },
                "Mold": {
                  "type": "string"
                },
                "MachineCount": {
                  "type": "string"
                }
              }
            }
          }
        }
      }
    },
    "/MFG/GetPartNo/{account}/{machineNo}": {
      "get": {
        "tags": [
          "mfg"
        ],
        "parameters": [
          {
            "name": "account",
            "in": "path",
            "description": "account",
            "required": true,
            "type": "string"
          },
          {
            "name": "machineNo",
            "in": "path",
            "description": "machine no",
            "required": true,
            "type": "string"
          }
        ],
        "responses": {
          "200": {
            "description": "successful operation",
            "schema": {
              "type": "object",
              "properties": {
                "Result": {
                  "type": "string",
                  "description": "success or fail"
                },
                "PartInfoList": {
                  "type": "array",
                  "items": {
                    "$ref": "#/definitions/PartInfoList"
                  }
                }
              }
            }
          }
        }
      }
    }
  },
  "definitions": {
    "Machine": {
      "type": "object",
      "properties": {
        "MachineNo": {
          "type": "string",
          "description": "The machine no."
        },
        "MachineStatus": {
          "type": "string",
          "description": "The machine name."
        },
        "PartNo": {
          "type": "string",
          "description": "The machine partNo."
        },
        "MachineCount": {
          "type": "string",
          "description": "The machine count."
        }
      }
    },
    "MachineStage": {
      "type": "object",
      "properties": {
        "Now": {
          "type": "string",
          "description": "The machine no."
        },
        "Next": {
          "type": "array",
          "items": {
            "type": "string"
          }
        }
      }
    },
    "PartInfoList": {
      "type": "object",
      "properties": {
        "PartNo": {
          "type": "string"
        },
        "PartNoDetail": {
          "type": "array",
          "items": {
            "type": "object",
            "properties": {
              "Mold": {
                "type": "string"
              },
              "Hole1": {
                "type": "string"
              },
              "Hole2": {
                "type": "string"
              }
            }
          }
        }
      }
    }
  },
  "externalDocs": {
    "description": "Find out more about Swagger",
    "url": "http://swagger.io"
  }
}